Extract field(s) from humdrumR data — pullHumdrum • humdrumR
…
humData |> pull_data.table(Token, Spine)
#>      Token Spine
#>   1:   4GG     1
#>   2:    4G     1
#>   3:    4E     1
#>   4:   4F#     1
#>   5:    4G     1
#>  ---            
#> 838:   4g#     4
#> 839:   4f#     4
#> 840:   4c#     4
#> 841:   4d#     4
#> 842:   4e;     4
humData |> pull_tibble(everything())
#> # A tibble: 842 × 42
#>    Token Bar   BarLabel DoubleBar Formal BPM   Clef   Exclusive Instrument
#>    <chr> <chr> <chr>    <chr>     <chr>  <chr> <chr>  <chr>     <chr>     
#>  1 4GG   0     *        0         A      MM100 clefF4 kern      "I\"Bass" 
#>  2 4G    1     1        0         A      MM100 clefF4 kern      "I\"Bass" 
#>  3 4E    1     1        0         A      MM100 clefF4 kern      "I\"Bass" 
#>  4 4F#   1     1        0         A      MM100 clefF4 kern      "I\"Bass" 
#>  5 4G    2     2        0         A      MM100 clefF4 kern      "I\"Bass" 
#>  6 4D    2     2        0         A      MM100 clefF4 kern      "I\"Bass" 
#>  7 4E    2     2        0         A      MM100 clefF4 kern      "I\"Bass" 
#>  8 4C    3     3        0         A      MM100 clefF4 kern      "I\"Bass" 
#>  9 8BBL  3     3        0         A      MM100 clefF4 kern      "I\"Bass" 
#> 10 8AAJ  3     3        0         A      MM100 clefF4 kern      "I\"Bass" 
#> # ℹ 832 more rows
#> # ℹ 33 more variables: InstrumentClass <chr>, Key <chr>, KeySignature <chr>,
#> #   Mensuration <chr>, Tandem <chr>, TimeSignature <chr>, AGN <chr>, CDT <chr>,
#> #   COM <chr>, EED <chr>, EEV <chr>, OPR <chr>, `OTL@@DE` <chr>,
#> #   `OTL@EN` <chr>, `PC#` <chr>, SCT <chr>, SMS <chr>, YOR <chr>,
#> #   hum2abc <chr>, title <chr>, DataRecord <chr>, File <chr>, Filename <chr>,
#> #   Filepath <chr>, Global <chr>, Label <chr>, ParentPath <chr>, Path <chr>, …
…
